Script started on Sat 22 Sep 2012 11:19:38 PM EDT
ice1:assignment1 % cat hello2.cgi
#!/bin/sh
        # my second cgi program. Wow!

        echo "Content-type: text/html"
        echo ""

        echo "<html><body style='background-color:yellow; color:green'>"
        echo "Hello from <b>"
        hostname
        echo "</b>";
        echo "The local time here is <span style='color:blue'>"
        date
        echo "</span>"
ice1:assignment1 % hell[K[K[K[K./hello2.cgi
Content-type: text/html

<html><body style='background-color:yellow; color:green'>
Hello from <b>
ice1
</b>
The local time here is <span style='color:blue'>
Sat Sep 22 23:20:00 EDT 2012
</span>
ice1:assignment1 % exit
exit

Script done on Sat 22 Sep 2012 11:20:06 PM EDT
